{
  "contractName": "Counters",
  "abi": [],
  "metadata": "{\"compiler\":{\"version\":\"0.8.0+commit.c7dfd78e\"},\"language\":\"Solidity\",\"output\":{\"abi\":[],\"devdoc\":{\"author\":\"Matt Condon (@shrugs)\",\"details\":\"Provides counters that can only be incremented, decremented or reset. This can be used e.g. to track the number of elements in a mapping, issuing ERC721 ids, or counting request ids. Include with `using Counters for Counters.Counter;`\",\"kind\":\"dev\",\"methods\":{},\"title\":\"Counters\",\"version\":1},\"userdoc\":{\"kind\":\"user\",\"methods\":{},\"version\":1}},\"settings\":{\"compilationTarget\":{\"@openzeppelin/contracts/utils/Counters.sol\":\"Counters\"},\"evmVersion\":\"istanbul\",\"libraries\":{},\"metadata\":{\"bytecodeHash\":\"ipfs\"},\"optimizer\":{\"enabled\":true,\"runs\":200},\"remappings\":[]},\"sources\":{\"@openzeppelin/contracts/utils/Counters.sol\":{\"keccak256\":\"0x74f630d2664c1581a1cbd0730d4ba119b3a184ef90c65f3a934be4d16d0e58a1\",\"license\":\"MIT\",\"urls\":[\"bzz-raw://cadad0b133129f946a53e0f61fa387803ccdc010d9c794da0738bb7fc5001b66\",\"dweb:/ipfs/QmQdTBpUT9WgDuCm7womDFiAnksepw6Fmi5Z5vv1H17Qr1\"]}},\"version\":1}",
  "bytecode": "0x60566037600b82828239805160001a607314602a57634e487b7160e01b600052600060045260246000fd5b30600052607381538281f3fe73000000000000000000000000000000000000000030146080604052600080fdfea26469706673582212206785772adc30020aa858734c389926a83c895043493efc3e1a974708e81116a464736f6c63430008000033",
  "deployedBytecode": "0x73000000000000000000000000000000000000000030146080604052600080fdfea26469706673582212206785772adc30020aa858734c389926a83c895043493efc3e1a974708e81116a464736f6c63430008000033",
  "immutableReferences": {},
  "generatedSources": [],
  "deployedGeneratedSources": [],
  "sourceMap": "424:971:9:-:0;;;;;;;;;;;;;;;-1:-1:-1;;;424:971:9;;;;;;;;;;;;;;;;;",
  "deployedSourceMap": "424:971:9:-:0;;;;;;;;",
  "source": "// SPDX-License-Identifier: MIT\n// OpenZeppelin Contracts v4.4.0 (utils/Counters.sol)\n\npragma solidity ^0.8.0;\n\n/**\n * @title Counters\n * @author Matt Condon (@shrugs)\n * @dev Provides counters that can only be incremented, decremented or reset. This can be used e.g. to track the number\n * of elements in a mapping, issuing ERC721 ids, or counting request ids.\n *\n * Include with `using Counters for Counters.Counter;`\n */\nlibrary Counters {\n    struct Counter {\n        // This variable should never be directly accessed by users of the library: interactions must be restricted to\n        // the library's function. As of Solidity v0.5.2, this cannot be enforced, though there is a proposal to add\n        // this feature: see https://github.com/ethereum/solidity/issues/4637\n        uint256 _value; // default: 0\n    }\n\n    function current(Counter storage counter) internal view returns (uint256) {\n        return counter._value;\n    }\n\n    function increment(Counter storage counter) internal {\n        unchecked {\n            counter._value += 1;\n        }\n    }\n\n    function decrement(Counter storage counter) internal {\n        uint256 value = counter._value;\n        require(value > 0, \"Counter: decrement overflow\");\n        unchecked {\n            counter._value = value - 1;\n        }\n    }\n\n    function reset(Counter storage counter) internal {\n        counter._value = 0;\n    }\n}\n",
  "sourcePath": "@openzeppelin/contracts/utils/Counters.sol",
  "ast": {
    "absolutePath": "@openzeppelin/contracts/utils/Counters.sol",
    "exportedSymbols": {
      "Counters": [
        1696
      ]
    },
    "id": 1697,
    "license": "MIT",
    "nodeType": "SourceUnit",
    "nodes": [
      {
        "id": 1624,
        "literals": [
          "solidity",
          "^",
          "0.8",
          ".0"
        ],
        "nodeType": "PragmaDirective",
        "src": "87:23:9"
      },
      {
        "abstract": false,
        "baseContracts": [],
        "contractDependencies": [],
        "contractKind": "library",
        "documentation": {
          "id": 1625,
          "nodeType": "StructuredDocumentation",
          "src": "112:311:9",
          "text": " @title Counters\n @author Matt Condon (@shrugs)\n @dev Provides counters that can only be incremented, decremented or reset. This can be used e.g. to track the number\n of elements in a mapping, issuing ERC721 ids, or counting request ids.\n Include with `using Counters for Counters.Counter;`"
        },
        "fullyImplemented": true,
        "id": 1696,
        "linearizedBaseContracts": [
          1696
        ],
        "name": "Counters",
        "nodeType": "ContractDefinition",
        "nodes": [
          {
            "canonicalName": "Counters.Counter",
            "id": 1628,
            "members": [
              {
                "constant": false,
                "id": 1627,
                "mutability": "mutable",
                "name": "_value",
                "nodeType": "VariableDeclaration",
                "scope": 1628,
                "src": "786:14:9",
                "stateVariable": false,
                "storageLocation": "default",
                "typeDescriptions": {
                  "typeIdentifier": "t_uint256",
                  "typeString": "uint256"
                },
                "typeName": {
                  "id": 1626,
                  "name": "uint256",
                  "nodeType": "ElementaryTypeName",
                  "src": "786:7:9",
                  "typeDescriptions": {
                    "typeIdentifier": "t_uint256",
                    "typeString": "uint256"
                  }
                },
                "visibility": "internal"
              }
            ],
            "name": "Counter",
            "nodeType": "StructDefinition",
            "scope": 1696,
            "src": "447:374:9",
            "visibility": "public"
          },
          {
            "body": {
              "id": 1639,
              "nodeType": "Block",
              "src": "901:38:9",
              "statements": [
                {
                  "expression": {
                    "expression": {
                      "id": 1636,
                      "name": "counter",
                      "nodeType": "Identifier",
                      "overloadedDeclarations": [],
                      "referencedDeclaration": 1631,
                      "src": "918:7:9",
                      "typeDescriptions": {
                        "typeIdentifier": "t_struct$_Counter_$1628_storage_ptr",
                        "typeString": "struct Counters.Counter storage pointer"
                      }
                    },
                    "id": 1637,
                    "isConstant": false,
                    "isLValue": true,
                    "isPure": false,
                    "lValueRequested": false,
                    "memberName": "_value",
                    "nodeType": "MemberAccess",
                    "referencedDeclaration": 1627,
                    "src": "918:14:9",
                    "typeDescriptions": {
                      "typeIdentifier": "t_uint256",
                      "typeString": "uint256"
                    }
                  },
                  "functionReturnParameters": 1635,
                  "id": 1638,
                  "nodeType": "Return",
                  "src": "911:21:9"
                }
              ]
            },
            "id": 1640,
            "implemented": true,
            "kind": "function",
            "modifiers": [],
            "name": "current",
            "nodeType": "FunctionDefinition",
            "parameters": {
              "id": 1632,
              "nodeType": "ParameterList",
              "parameters": [
                {
                  "constant": false,
                  "id": 1631,
                  "mutability": "mutable",
                  "name": "counter",
                  "nodeType": "VariableDeclaration",
                  "scope": 1640,
                  "src": "844:23:9",
                  "stateVariable": false,
                  "storageLocation": "storage",
                  "typeDescriptions": {
                    "typeIdentifier": "t_struct$_Counter_$1628_storage_ptr",
                    "typeString": "struct Counters.Counter"
                  },
                  "typeName": {
                    "id": 1630,
                    "nodeType": "UserDefinedTypeName",
                    "pathNode": {
                      "id": 1629,
                      "name": "Counter",
                      "nodeType": "IdentifierPath",
                      "referencedDeclaration": 1628,
                      "src": "844:7:9"
                    },
                    "referencedDeclaration": 1628,
                    "src": "844:7:9",
                    "typeDescriptions": {
                      "typeIdentifier": "t_struct$_Counter_$1628_storage_ptr",
                      "typeString": "struct Counters.Counter"
                    }
                  },
                  "visibility": "internal"
                }
              ],
              "src": "843:25:9"
            },
            "returnParameters": {
              "id": 1635,
              "nodeType": "ParameterList",
              "parameters": [
                {
                  "constant": false,
                  "id": 1634,
                  "mutability": "mutable",
                  "name": "",
                  "nodeType": "VariableDeclaration",
                  "scope": 1640,
                  "src": "892:7:9",
                  "stateVariable": false,
                  "storageLocation": "default",
                  "typeDescriptions": {
                    "typeIdentifier": "t_uint256",
                    "typeString": "uint256"
                  },
                  "typeName": {
                    "id": 1633,
                    "name": "uint256",
                    "nodeType": "ElementaryTypeName",
                    "src": "892:7:9",
                    "typeDescriptions": {
                      "typeIdentifier": "t_uint256",
                      "typeString": "uint256"
                    }
                  },
                  "visibility": "internal"
                }
              ],
              "src": "891:9:9"
            },
            "scope": 1696,
            "src": "827:112:9",
            "stateMutability": "view",
            "virtual": false,
            "visibility": "internal"
          },
          {
            "body": {
              "id": 1653,
              "nodeType": "Block",
              "src": "998:70:9",
              "statements": [
                {
                  "id": 1652,
                  "nodeType": "UncheckedBlock",
                  "src": "1008:54:9",
                  "statements": [
                    {
                      "expression": {
                        "id": 1650,
                        "isConstant": false,
                        "isLValue": false,
                        "isPure": false,
                        "lValueRequested": false,
                        "leftHandSide": {
                          "expression": {
                            "id": 1646,
                            "name": "counter",
                            "nodeType": "Identifier",
                            "overloadedDeclarations": [],
                            "referencedDeclaration": 1643,
                            "src": "1032:7:9",
                            "typeDescriptions": {
                              "typeIdentifier": "t_struct$_Counter_$1628_storage_ptr",
                              "typeString": "struct Counters.Counter storage pointer"
                            }
                          },
                          "id": 1648,
                          "isConstant": false,
                          "isLValue": true,
                          "isPure": false,
                          "lValueRequested": true,
                          "memberName": "_value",
                          "nodeType": "MemberAccess",
                          "referencedDeclaration": 1627,
                          "src": "1032:14:9",
                          "typeDescriptions": {
                            "typeIdentifier": "t_uint256",
                            "typeString": "uint256"
                          }
                        },
                        "nodeType": "Assignment",
                        "operator": "+=",
                        "rightHandSide": {
                          "hexValue": "31",
                          "id": 1649,
                          "isConstant": false,
                          "isLValue": false,
                          "isPure": true,
                          "kind": "number",
                          "lValueRequested": false,
                          "nodeType": "Literal",
                          "src": "1050:1:9",
                          "typeDescriptions": {
                            "typeIdentifier": "t_rational_1_by_1",
                            "typeString": "int_const 1"
                          },
                          "value": "1"
                        },
                        "src": "1032:19:9",
                        "typeDescriptions": {
                          "typeIdentifier": "t_uint256",
                          "typeString": "uint256"
                        }
                      },
                      "id": 1651,
                      "nodeType": "ExpressionStatement",
                      "src": "1032:19:9"
                    }
                  ]
                }
              ]
            },
            "id": 1654,
            "implemented": true,
            "kind": "function",
            "modifiers": [],
            "name": "increment",
            "nodeType": "FunctionDefinition",
            "parameters": {
              "id": 1644,
              "nodeType": "ParameterList",
              "parameters": [
                {
                  "constant": false,
                  "id": 1643,
                  "mutability": "mutable",
                  "name": "counter",
                  "nodeType": "VariableDeclaration",
                  "scope": 1654,
                  "src": "964:23:9",
                  "stateVariable": false,
                  "storageLocation": "storage",
                  "typeDescriptions": {
                    "typeIdentifier": "t_struct$_Counter_$1628_storage_ptr",
                    "typeString": "struct Counters.Counter"
                  },
                  "typeName": {
                    "id": 1642,
                    "nodeType": "UserDefinedTypeName",
                    "pathNode": {
                      "id": 1641,
                      "name": "Counter",
                      "nodeType": "IdentifierPath",
                      "referencedDeclaration": 1628,
                      "src": "964:7:9"
                    },
                    "referencedDeclaration": 1628,
                    "src": "964:7:9",
                    "typeDescriptions": {
                      "typeIdentifier": "t_struct$_Counter_$1628_storage_ptr",
                      "typeString": "struct Counters.Counter"
                    }
                  },
                  "visibility": "internal"
                }
              ],
              "src": "963:25:9"
            },
            "returnParameters": {
              "id": 1645,
              "nodeType": "ParameterList",
              "parameters": [],
              "src": "998:0:9"
            },
            "scope": 1696,
            "src": "945:123:9",
            "stateMutability": "nonpayable",
            "virtual": false,
            "visibility": "internal"
          },
          {
            "body": {
              "id": 1681,
              "nodeType": "Block",
              "src": "1127:176:9",
              "statements": [
                {
                  "assignments": [
                    1661
                  ],
                  "declarations": [
                    {
                      "constant": false,
                      "id": 1661,
                      "mutability": "mutable",
                      "name": "value",
                      "nodeType": "VariableDeclaration",
                      "scope": 1681,
                      "src": "1137:13:9",
                      "stateVariable": false,
                      "storageLocation": "default",
                      "typeDescriptions": {
                        "typeIdentifier": "t_uint256",
                        "typeString": "uint256"
                      },
                      "typeName": {
                        "id": 1660,
                        "name": "uint256",
                        "nodeType": "ElementaryTypeName",
                        "src": "1137:7:9",
                        "typeDescriptions": {
                          "typeIdentifier": "t_uint256",
                          "typeString": "uint256"
                        }
                      },
                      "visibility": "internal"
                    }
                  ],
                  "id": 1664,
                  "initialValue": {
                    "expression": {
                      "id": 1662,
                      "name": "counter",
                      "nodeType": "Identifier",
                      "overloadedDeclarations": [],
                      "referencedDeclaration": 1657,
                      "src": "1153:7:9",
                      "typeDescriptions": {
                        "typeIdentifier": "t_struct$_Counter_$1628_storage_ptr",
                        "typeString": "struct Counters.Counter storage pointer"
                      }
                    },
                    "id": 1663,
                    "isConstant": false,
                    "isLValue": true,
                    "isPure": false,
                    "lValueRequested": false,
                    "memberName": "_value",
                    "nodeType": "MemberAccess",
                    "referencedDeclaration": 1627,
                    "src": "1153:14:9",
                    "typeDescriptions": {
                      "typeIdentifier": "t_uint256",
                      "typeString": "uint256"
                    }
                  },
                  "nodeType": "VariableDeclarationStatement",
                  "src": "1137:30:9"
                },
                {
                  "expression": {
                    "arguments": [
                      {
                        "commonType": {
                          "typeIdentifier": "t_uint256",
                          "typeString": "uint256"
                        },
                        "id": 1668,
                        "isConstant": false,
                        "isLValue": false,
                        "isPure": false,
                        "lValueRequested": false,
                        "leftExpression": {
                          "id": 1666,
                          "name": "value",
                          "nodeType": "Identifier",
                          "overloadedDeclarations": [],
                          "referencedDeclaration": 1661,
                          "src": "1185:5:9",
                          "typeDescriptions": {
                            "typeIdentifier": "t_uint256",
                            "typeString": "uint256"
                          }
                        },
                        "nodeType": "BinaryOperation",
                        "operator": ">",
                        "rightExpression": {
                          "hexValue": "30",
                          "id": 1667,
                          "isConstant": false,
                          "isLValue": false,
                          "isPure": true,
                          "kind": "number",
                          "lValueRequested": false,
                          "nodeType": "Literal",
                          "src": "1193:1:9",
                          "typeDescriptions": {
                            "typeIdentifier": "t_rational_0_by_1",
                            "typeString": "int_const 0"
                          },
                          "value": "0"
                        },
                        "src": "1185:9:9",
                        "typeDescriptions": {
                          "typeIdentifier": "t_bool",
                          "typeString": "bool"
                        }
                      },
                      {
                        "hexValue": "436f756e7465723a2064656372656d656e74206f766572666c6f77",
                        "id": 1669,
                        "isConstant": false,
                        "isLValue": false,
                        "isPure": true,
                        "kind": "string",
                        "lValueRequested": false,
                        "nodeType": "Literal",
                        "src": "1196:29:9",
                        "typeDescriptions": {
                          "typeIdentifier": "t_stringliteral_1dfd0d5389474d871b8e8929aab9d4def041f55f90f625754fb5f9a9ba08af6f",
                          "typeString": "literal_string \"Counter: decrement overflow\""
                        },
                        "value": "Counter: decrement overflow"
                      }
                    ],
                    "expression": {
                      "argumentTypes": [
                        {
                          "typeIdentifier": "t_bool",
                          "typeString": "bool"
                        },
                        {
                          "typeIdentifier": "t_stringliteral_1dfd0d5389474d871b8e8929aab9d4def041f55f90f625754fb5f9a9ba08af6f",
                          "typeString": "literal_string \"Counter: decrement overflow\""
                        }
                      ],
                      "id": 1665,
                      "name": "require",
                      "nodeType": "Identifier",
                      "overloadedDeclarations": [
                        4294967278,
                        4294967278
                      ],
                      "referencedDeclaration": 4294967278,
                      "src": "1177:7:9",
                      "typeDescriptions": {
                        "typeIdentifier": "t_function_require_pure$_t_bool_$_t_string_memory_ptr_$returns$__$",
                        "typeString": "function (bool,string memory) pure"
                      }
                    },
                    "id": 1670,
                    "isConstant": false,
                    "isLValue": false,
                    "isPure": false,
                    "kind": "functionCall",
                    "lValueRequested": false,
                    "names": [],
                    "nodeType": "FunctionCall",
                    "src": "1177:49:9",
                    "tryCall": false,
                    "typeDescriptions": {
                      "typeIdentifier": "t_tuple$__$",
                      "typeString": "tuple()"
                    }
                  },
                  "id": 1671,
                  "nodeType": "ExpressionStatement",
                  "src": "1177:49:9"
                },
                {
                  "id": 1680,
                  "nodeType": "UncheckedBlock",
                  "src": "1236:61:9",
                  "statements": [
                    {
                      "expression": {
                        "id": 1678,
                        "isConstant": false,
                        "isLValue": false,
                        "isPure": false,
                        "lValueRequested": false,
                        "leftHandSide": {
                          "expression": {
                            "id": 1672,
                            "name": "counter",
                            "nodeType": "Identifier",
                            "overloadedDeclarations": [],
                            "referencedDeclaration": 1657,
                            "src": "1260:7:9",
                            "typeDescriptions": {
                              "typeIdentifier": "t_struct$_Counter_$1628_storage_ptr",
                              "typeString": "struct Counters.Counter storage pointer"
                            }
                          },
                          "id": 1674,
                          "isConstant": false,
                          "isLValue": true,
                          "isPure": false,
                          "lValueRequested": true,
                          "memberName": "_value",
                          "nodeType": "MemberAccess",
                          "referencedDeclaration": 1627,
                          "src": "1260:14:9",
                          "typeDescriptions": {
                            "typeIdentifier": "t_uint256",
                            "typeString": "uint256"
                          }
                        },
                        "nodeType": "Assignment",
                        "operator": "=",
                        "rightHandSide": {
                          "commonType": {
                            "typeIdentifier": "t_uint256",
                            "typeString": "uint256"
                          },
                          "id": 1677,
                          "isConstant": false,
                          "isLValue": false,
                          "isPure": false,
                          "lValueRequested": false,
                          "leftExpression": {
                            "id": 1675,
                            "name": "value",
                            "nodeType": "Identifier",
                            "overloadedDeclarations": [],
                            "referencedDeclaration": 1661,
                            "src": "1277:5:9",
                            "typeDescriptions": {
                              "typeIdentifier": "t_uint256",
                              "typeString": "uint256"
                            }
                          },
                          "nodeType": "BinaryOperation",
                          "operator": "-",
                          "rightExpression": {
                            "hexValue": "31",
                            "id": 1676,
                            "isConstant": false,
                            "isLValue": false,
                            "isPure": true,
                            "kind": "number",
                            "lValueRequested": false,
                            "nodeType": "Literal",
                            "src": "1285:1:9",
                            "typeDescriptions": {
                              "typeIdentifier": "t_rational_1_by_1",
                              "typeString": "int_const 1"
                            },
                            "value": "1"
                          },
                          "src": "1277:9:9",
                          "typeDescriptions": {
                            "typeIdentifier": "t_uint256",
                            "typeString": "uint256"
                          }
                        },
                        "src": "1260:26:9",
                        "typeDescriptions": {
                          "typeIdentifier": "t_uint256",
                          "typeString": "uint256"
                        }
                      },
                      "id": 1679,
                      "nodeType": "ExpressionStatement",
                      "src": "1260:26:9"
                    }
                  ]
                }
              ]
            },
            "id": 1682,
            "implemented": true,
            "kind": "function",
            "modifiers": [],
            "name": "decrement",
            "nodeType": "FunctionDefinition",
            "parameters": {
              "id": 1658,
              "nodeType": "ParameterList",
              "parameters": [
                {
                  "constant": false,
                  "id": 1657,
                  "mutability": "mutable",
                  "name": "counter",
                  "nodeType": "VariableDeclaration",
                  "scope": 1682,
                  "src": "1093:23:9",
                  "stateVariable": false,
                  "storageLocation": "storage",
                  "typeDescriptions": {
                    "typeIdentifier": "t_struct$_Counter_$1628_storage_ptr",
                    "typeString": "struct Counters.Counter"
                  },
                  "typeName": {
                    "id": 1656,
                    "nodeType": "UserDefinedTypeName",
                    "pathNode": {
                      "id": 1655,
                      "name": "Counter",
                      "nodeType": "IdentifierPath",
                      "referencedDeclaration": 1628,
                      "src": "1093:7:9"
                    },
                    "referencedDeclaration": 1628,
                    "src": "1093:7:9",
                    "typeDescriptions": {
                      "typeIdentifier": "t_struct$_Counter_$1628_storage_ptr",
                      "typeString": "struct Counters.Counter"
                    }
                  },
                  "visibility": "internal"
                }
              ],
              "src": "1092:25:9"
            },
            "returnParameters": {
              "id": 1659,
              "nodeType": "ParameterList",
              "parameters": [],
              "src": "1127:0:9"
            },
            "scope": 1696,
            "src": "1074:229:9",
            "stateMutability": "nonpayable",
            "virtual": false,
            "visibility": "internal"
          },
          {
            "body": {
              "id": 1694,
              "nodeType": "Block",
              "src": "1358:35:9",
              "statements": [
                {
                  "expression": {
                    "id": 1692,
                    "isConstant": false,
                    "isLValue": false,
                    "isPure": false,
                    "lValueRequested": false,
                    "leftHandSide": {
                      "expression": {
                        "id": 1688,
                        "name": "counter",
                        "nodeType": "Identifier",
                        "overloadedDeclarations": [],
                        "referencedDeclaration": 1685,
                        "src": "1368:7:9",
                        "typeDescriptions": {
                          "typeIdentifier": "t_struct$_Counter_$1628_storage_ptr",
                          "typeString": "struct Counters.Counter storage pointer"
                        }
                      },
                      "id": 1690,
                      "isConstant": false,
                      "isLValue": true,
                      "isPure": false,
                      "lValueRequested": true,
                      "memberName": "_value",
                      "nodeType": "MemberAccess",
                      "referencedDeclaration": 1627,
                      "src": "1368:14:9",
                      "typeDescriptions": {
                        "typeIdentifier": "t_uint256",
                        "typeString": "uint256"
                      }
                    },
                    "nodeType": "Assignment",
                    "operator": "=",
                    "rightHandSide": {
                      "hexValue": "30",
                      "id": 1691,
                      "isConstant": false,
                      "isLValue": false,
                      "isPure": true,
                      "kind": "number",
                      "lValueRequested": false,
                      "nodeType": "Literal",
                      "src": "1385:1:9",
                      "typeDescriptions": {
                        "typeIdentifier": "t_rational_0_by_1",
                        "typeString": "int_const 0"
                      },
                      "value": "0"
                    },
                    "src": "1368:18:9",
                    "typeDescriptions": {
                      "typeIdentifier": "t_uint256",
                      "typeString": "uint256"
                    }
                  },
                  "id": 1693,
                  "nodeType": "ExpressionStatement",
                  "src": "1368:18:9"
                }
              ]
            },
            "id": 1695,
            "implemented": true,
            "kind": "function",
            "modifiers": [],
            "name": "reset",
            "nodeType": "FunctionDefinition",
            "parameters": {
              "id": 1686,
              "nodeType": "ParameterList",
              "parameters": [
                {
                  "constant": false,
                  "id": 1685,
                  "mutability": "mutable",
                  "name": "counter",
                  "nodeType": "VariableDeclaration",
                  "scope": 1695,
                  "src": "1324:23:9",
                  "stateVariable": false,
                  "storageLocation": "storage",
                  "typeDescriptions": {
                    "typeIdentifier": "t_struct$_Counter_$1628_storage_ptr",
                    "typeString": "struct Counters.Counter"
                  },
                  "typeName": {
                    "id": 1684,
                    "nodeType": "UserDefinedTypeName",
                    "pathNode": {
                      "id": 1683,
                      "name": "Counter",
                      "nodeType": "IdentifierPath",
                      "referencedDeclaration": 1628,
                      "src": "1324:7:9"
                    },
                    "referencedDeclaration": 1628,
                    "src": "1324:7:9",
                    "typeDescriptions": {
                      "typeIdentifier": "t_struct$_Counter_$1628_storage_ptr",
                      "typeString": "struct Counters.Counter"
                    }
                  },
                  "visibility": "internal"
                }
              ],
              "src": "1323:25:9"
            },
            "returnParameters": {
              "id": 1687,
              "nodeType": "ParameterList",
              "parameters": [],
              "src": "1358:0:9"
            },
            "scope": 1696,
            "src": "1309:84:9",
            "stateMutability": "nonpayable",
            "virtual": false,
            "visibility": "internal"
          }
        ],
        "scope": 1697,
        "src": "424:971:9"
      }
    ],
    "src": "87:1309:9"
  },
  "legacyAST": {
    "absolutePath": "@openzeppelin/contracts/utils/Counters.sol",
    "exportedSymbols": {
      "Counters": [
        1696
      ]
    },
    "id": 1697,
    "license": "MIT",
    "nodeType": "SourceUnit",
    "nodes": [
      {
        "id": 1624,
        "literals": [
          "solidity",
          "^",
          "0.8",
          ".0"
        ],
        "nodeType": "PragmaDirective",
        "src": "87:23:9"
      },
      {
        "abstract": false,
        "baseContracts": [],
        "contractDependencies": [],
        "contractKind": "library",
        "documentation": {
          "id": 1625,
          "nodeType": "StructuredDocumentation",
          "src": "112:311:9",
          "text": " @title Counters\n @author Matt Condon (@shrugs)\n @dev Provides counters that can only be incremented, decremented or reset. This can be used e.g. to track the number\n of elements in a mapping, issuing ERC721 ids, or counting request ids.\n Include with `using Counters for Counters.Counter;`"
        },
        "fullyImplemented": true,
        "id": 1696,
        "linearizedBaseContracts": [
          1696
        ],
        "name": "Counters",
        "nodeType": "ContractDefinition",
        "nodes": [
          {
            "canonicalName": "Counters.Counter",
            "id": 1628,
            "members": [
              {
                "constant": false,
                "id": 1627,
                "mutability": "mutable",
                "name": "_value",
                "nodeType": "VariableDeclaration",
                "scope": 1628,
                "src": "786:14:9",
                "stateVariable": false,
                "storageLocation": "default",
                "typeDescriptions": {
                  "typeIdentifier": "t_uint256",
                  "typeString": "uint256"
                },
                "typeName": {
                  "id": 1626,
                  "name": "uint256",
                  "nodeType": "ElementaryTypeName",
                  "src": "786:7:9",
                  "typeDescriptions": {
                    "typeIdentifier": "t_uint256",
                    "typeString": "uint256"
                  }
                },
                "visibility": "internal"
              }
            ],
            "name": "Counter",
            "nodeType": "StructDefinition",
            "scope": 1696,
            "src": "447:374:9",
            "visibility": "public"
          },
          {
            "body": {
              "id": 1639,
              "nodeType": "Block",
              "src": "901:38:9",
              "statements": [
                {
                  "expression": {
                    "expression": {
                      "id": 1636,
                      "name": "counter",
                      "nodeType": "Identifier",
                      "overloadedDeclarations": [],
                      "referencedDeclaration": 1631,
                      "src": "918:7:9",
                      "typeDescriptions": {
                        "typeIdentifier": "t_struct$_Counter_$1628_storage_ptr",
                        "typeString": "struct Counters.Counter storage pointer"
                      }
                    },
                    "id": 1637,
                    "isConstant": false,
                    "isLValue": true,
                    "isPure": false,
                    "lValueRequested": false,
                    "memberName": "_value",
                    "nodeType": "MemberAccess",
                    "referencedDeclaration": 1627,
                    "src": "918:14:9",
                    "typeDescriptions": {
                      "typeIdentifier": "t_uint256",
                      "typeString": "uint256"
                    }
                  },
                  "functionReturnParameters": 1635,
                  "id": 1638,
                  "nodeType": "Return",
                  "src": "911:21:9"
                }
              ]
            },
            "id": 1640,
            "implemented": true,
            "kind": "function",
            "modifiers": [],
            "name": "current",
            "nodeType": "FunctionDefinition",
            "parameters": {
              "id": 1632,
              "nodeType": "ParameterList",
              "parameters": [
                {
                  "constant": false,
                  "id": 1631,
                  "mutability": "mutable",
                  "name": "counter",
                  "nodeType": "VariableDeclaration",
                  "scope": 1640,
                  "src": "844:23:9",
                  "stateVariable": false,
                  "storageLocation": "storage",
                  "typeDescriptions": {
                    "typeIdentifier": "t_struct$_Counter_$1628_storage_ptr",
                    "typeString": "struct Counters.Counter"
                  },
                  "typeName": {
                    "id": 1630,
                    "nodeType": "UserDefinedTypeName",
                    "pathNode": {
                      "id": 1629,
                      "name": "Counter",
                      "nodeType": "IdentifierPath",
                      "referencedDeclaration": 1628,
                      "src": "844:7:9"
                    },
                    "referencedDeclaration": 1628,
                    "src": "844:7:9",
                    "typeDescriptions": {
                      "typeIdentifier": "t_struct$_Counter_$1628_storage_ptr",
                      "typeString": "struct Counters.Counter"
                    }
                  },
                  "visibility": "internal"
                }
              ],
              "src": "843:25:9"
            },
            "returnParameters": {
              "id": 1635,
              "nodeType": "ParameterList",
              "parameters": [
                {
                  "constant": false,
                  "id": 1634,
                  "mutability": "mutable",
                  "name": "",
                  "nodeType": "VariableDeclaration",
                  "scope": 1640,
                  "src": "892:7:9",
                  "stateVariable": false,
                  "storageLocation": "default",
                  "typeDescriptions": {
                    "typeIdentifier": "t_uint256",
                    "typeString": "uint256"
                  },
                  "typeName": {
                    "id": 1633,
                    "name": "uint256",
                    "nodeType": "ElementaryTypeName",
                    "src": "892:7:9",
                    "typeDescriptions": {
                      "typeIdentifier": "t_uint256",
                      "typeString": "uint256"
                    }
                  },
                  "visibility": "internal"
                }
              ],
              "src": "891:9:9"
            },
            "scope": 1696,
            "src": "827:112:9",
            "stateMutability": "view",
            "virtual": false,
            "visibility": "internal"
          },
          {
            "body": {
              "id": 1653,
              "nodeType": "Block",
              "src": "998:70:9",
              "statements": [
                {
                  "id": 1652,
                  "nodeType": "UncheckedBlock",
                  "src": "1008:54:9",
                  "statements": [
                    {
                      "expression": {
                        "id": 1650,
                        "isConstant": false,
                        "isLValue": false,
                        "isPure": false,
                        "lValueRequested": false,
                        "leftHandSide": {
                          "expression": {
                            "id": 1646,
                            "name": "counter",
                            "nodeType": "Identifier",
                            "overloadedDeclarations": [],
                            "referencedDeclaration": 1643,
                            "src": "1032:7:9",
                            "typeDescriptions": {
                              "typeIdentifier": "t_struct$_Counter_$1628_storage_ptr",
                              "typeString": "struct Counters.Counter storage pointer"
                            }
                          },
                          "id": 1648,
                          "isConstant": false,
                          "isLValue": true,
                          "isPure": false,
                          "lValueRequested": true,
                          "memberName": "_value",
                          "nodeType": "MemberAccess",
                          "referencedDeclaration": 1627,
                          "src": "1032:14:9",
                          "typeDescriptions": {
                            "typeIdentifier": "t_uint256",
                            "typeString": "uint256"
                          }
                        },
                        "nodeType": "Assignment",
                        "operator": "+=",
                        "rightHandSide": {
                          "hexValue": "31",
                          "id": 1649,
                          "isConstant": false,
                          "isLValue": false,
                          "isPure": true,
                          "kind": "number",
                          "lValueRequested": false,
                          "nodeType": "Literal",
                          "src": "1050:1:9",
                          "typeDescriptions": {
                            "typeIdentifier": "t_rational_1_by_1",
                            "typeString": "int_const 1"
                          },
                          "value": "1"
                        },
                        "src": "1032:19:9",
                        "typeDescriptions": {
                          "typeIdentifier": "t_uint256",
                          "typeString": "uint256"
                        }
                      },
                      "id": 1651,
                      "nodeType": "ExpressionStatement",
                      "src": "1032:19:9"
                    }
                  ]
                }
              ]
            },
            "id": 1654,
            "implemented": true,
            "kind": "function",
            "modifiers": [],
            "name": "increment",
            "nodeType": "FunctionDefinition",
            "parameters": {
              "id": 1644,
              "nodeType": "ParameterList",
              "parameters": [
                {
                  "constant": false,
                  "id": 1643,
                  "mutability": "mutable",
                  "name": "counter",
                  "nodeType": "VariableDeclaration",
                  "scope": 1654,
                  "src": "964:23:9",
                  "stateVariable": false,
                  "storageLocation": "storage",
                  "typeDescriptions": {
                    "typeIdentifier": "t_struct$_Counter_$1628_storage_ptr",
                    "typeString": "struct Counters.Counter"
                  },
                  "typeName": {
                    "id": 1642,
                    "nodeType": "UserDefinedTypeName",
                    "pathNode": {
                      "id": 1641,
                      "name": "Counter",
                      "nodeType": "IdentifierPath",
                      "referencedDeclaration": 1628,
                      "src": "964:7:9"
                    },
                    "referencedDeclaration": 1628,
                    "src": "964:7:9",
                    "typeDescriptions": {
                      "typeIdentifier": "t_struct$_Counter_$1628_storage_ptr",
                      "typeString": "struct Counters.Counter"
                    }
                  },
                  "visibility": "internal"
                }
              ],
              "src": "963:25:9"
            },
            "returnParameters": {
              "id": 1645,
              "nodeType": "ParameterList",
              "parameters": [],
              "src": "998:0:9"
            },
            "scope": 1696,
            "src": "945:123:9",
            "stateMutability": "nonpayable",
            "virtual": false,
            "visibility": "internal"
          },
          {
            "body": {
              "id": 1681,
              "nodeType": "Block",
              "src": "1127:176:9",
              "statements": [
                {
                  "assignments": [
                    1661
                  ],
                  "declarations": [
                    {
                      "constant": false,
                      "id": 1661,
                      "mutability": "mutable",
                      "name": "value",
                      "nodeType": "VariableDeclaration",
                      "scope": 1681,
                      "src": "1137:13:9",
                      "stateVariable": false,
                      "storageLocation": "default",
                      "typeDescriptions": {
                        "typeIdentifier": "t_uint256",
                        "typeString": "uint256"
                      },
                      "typeName": {
                        "id": 1660,
                        "name": "uint256",
                        "nodeType": "ElementaryTypeName",
                        "src": "1137:7:9",
                        "typeDescriptions": {
                          "typeIdentifier": "t_uint256",
                          "typeString": "uint256"
                        }
                      },
                      "visibility": "internal"
                    }
                  ],
                  "id": 1664,
                  "initialValue": {
                    "expression": {
                      "id": 1662,
                      "name": "counter",
                      "nodeType": "Identifier",
                      "overloadedDeclarations": [],
                      "referencedDeclaration": 1657,
                      "src": "1153:7:9",
                      "typeDescriptions": {
                        "typeIdentifier": "t_struct$_Counter_$1628_storage_ptr",
                        "typeString": "struct Counters.Counter storage pointer"
                      }
                    },
                    "id": 1663,
                    "isConstant": false,
                    "isLValue": true,
                    "isPure": false,
                    "lValueRequested": false,
                    "memberName": "_value",
                    "nodeType": "MemberAccess",
                    "referencedDeclaration": 1627,
                    "src": "1153:14:9",
                    "typeDescriptions": {
                      "typeIdentifier": "t_uint256",
                      "typeString": "uint256"
                    }
                  },
                  "nodeType": "VariableDeclarationStatement",
                  "src": "1137:30:9"
                },
                {
                  "expression": {
                    "arguments": [
                      {
                        "commonType": {
                          "typeIdentifier": "t_uint256",
                          "typeString": "uint256"
                        },
                        "id": 1668,
                        "isConstant": false,
                        "isLValue": false,
                        "isPure": false,
                        "lValueRequested": false,
                        "leftExpression": {
                          "id": 1666,
                          "name": "value",
                          "nodeType": "Identifier",
                          "overloadedDeclarations": [],
                          "referencedDeclaration": 1661,
                          "src": "1185:5:9",
                          "typeDescriptions": {
                            "typeIdentifier": "t_uint256",
                            "typeString": "uint256"
                          }
                        },
                        "nodeType": "BinaryOperation",
                        "operator": ">",
                        "rightExpression": {
                          "hexValue": "30",
                          "id": 1667,
                          "isConstant": false,
                          "isLValue": false,
                          "isPure": true,
                          "kind": "number",
                          "lValueRequested": false,
                          "nodeType": "Literal",
                          "src": "1193:1:9",
                          "typeDescriptions": {
                            "typeIdentifier": "t_rational_0_by_1",
                            "typeString": "int_const 0"
                          },
                          "value": "0"
                        },
                        "src": "1185:9:9",
                        "typeDescriptions": {
                          "typeIdentifier": "t_bool",
                          "typeString": "bool"
                        }
                      },
                      {
                        "hexValue": "436f756e7465723a2064656372656d656e74206f766572666c6f77",
                        "id": 1669,
                        "isConstant": false,
                        "isLValue": false,
                        "isPure": true,
                        "kind": "string",
                        "lValueRequested": false,
                        "nodeType": "Literal",
                        "src": "1196:29:9",
                        "typeDescriptions": {
                          "typeIdentifier": "t_stringliteral_1dfd0d5389474d871b8e8929aab9d4def041f55f90f625754fb5f9a9ba08af6f",
                          "typeString": "literal_string \"Counter: decrement overflow\""
                        },
                        "value": "Counter: decrement overflow"
                      }
                    ],
                    "expression": {
                      "argumentTypes": [
                        {
                          "typeIdentifier": "t_bool",
                          "typeString": "bool"
                        },
                        {
                          "typeIdentifier": "t_stringliteral_1dfd0d5389474d871b8e8929aab9d4def041f55f90f625754fb5f9a9ba08af6f",
                          "typeString": "literal_string \"Counter: decrement overflow\""
                        }
                      ],
                      "id": 1665,
                      "name": "require",
                      "nodeType": "Identifier",
                      "overloadedDeclarations": [
                        4294967278,
                        4294967278
                      ],
                      "referencedDeclaration": 4294967278,
                      "src": "1177:7:9",
                      "typeDescriptions": {
                        "typeIdentifier": "t_function_require_pure$_t_bool_$_t_string_memory_ptr_$returns$__$",
                        "typeString": "function (bool,string memory) pure"
                      }
                    },
                    "id": 1670,
                    "isConstant": false,
                    "isLValue": false,
                    "isPure": false,
                    "kind": "functionCall",
                    "lValueRequested": false,
                    "names": [],
                    "nodeType": "FunctionCall",
                    "src": "1177:49:9",
                    "tryCall": false,
                    "typeDescriptions": {
                      "typeIdentifier": "t_tuple$__$",
                      "typeString": "tuple()"
                    }
                  },
                  "id": 1671,
                  "nodeType": "ExpressionStatement",
                  "src": "1177:49:9"
                },
                {
                  "id": 1680,
                  "nodeType": "UncheckedBlock",
                  "src": "1236:61:9",
                  "statements": [
                    {
                      "expression": {
                        "id": 1678,
                        "isConstant": false,
                        "isLValue": false,
                        "isPure": false,
                        "lValueRequested": false,
                        "leftHandSide": {
                          "expression": {
                            "id": 1672,
                            "name": "counter",
                            "nodeType": "Identifier",
                            "overloadedDeclarations": [],
                            "referencedDeclaration": 1657,
                            "src": "1260:7:9",
                            "typeDescriptions": {
                              "typeIdentifier": "t_struct$_Counter_$1628_storage_ptr",
                              "typeString": "struct Counters.Counter storage pointer"
                            }
                          },
                          "id": 1674,
                          "isConstant": false,
                          "isLValue": true,
                          "isPure": false,
                          "lValueRequested": true,
                          "memberName": "_value",
                          "nodeType": "MemberAccess",
                          "referencedDeclaration": 1627,
                          "src": "1260:14:9",
                          "typeDescriptions": {
                            "typeIdentifier": "t_uint256",
                            "typeString": "uint256"
                          }
                        },
                        "nodeType": "Assignment",
                        "operator": "=",
                        "rightHandSide": {
                          "commonType": {
                            "typeIdentifier": "t_uint256",
                            "typeString": "uint256"
                          },
                          "id": 1677,
                          "isConstant": false,
                          "isLValue": false,
                          "isPure": false,
                          "lValueRequested": false,
                          "leftExpression": {
                            "id": 1675,
                            "name": "value",
                            "nodeType": "Identifier",
                            "overloadedDeclarations": [],
                            "referencedDeclaration": 1661,
                            "src": "1277:5:9",
                            "typeDescriptions": {
                              "typeIdentifier": "t_uint256",
                              "typeString": "uint256"
                            }
                          },
                          "nodeType": "BinaryOperation",
                          "operator": "-",
                          "rightExpression": {
                            "hexValue": "31",
                            "id": 1676,
                            "isConstant": false,
                            "isLValue": false,
                            "isPure": true,
                            "kind": "number",
                            "lValueRequested": false,
                            "nodeType": "Literal",
                            "src": "1285:1:9",
                            "typeDescriptions": {
                              "typeIdentifier": "t_rational_1_by_1",
                              "typeString": "int_const 1"
                            },
                            "value": "1"
                          },
                          "src": "1277:9:9",
                          "typeDescriptions": {
                            "typeIdentifier": "t_uint256",
                            "typeString": "uint256"
                          }
                        },
                        "src": "1260:26:9",
                        "typeDescriptions": {
                          "typeIdentifier": "t_uint256",
                          "typeString": "uint256"
                        }
                      },
                      "id": 1679,
                      "nodeType": "ExpressionStatement",
                      "src": "1260:26:9"
                    }
                  ]
                }
              ]
            },
            "id": 1682,
            "implemented": true,
            "kind": "function",
            "modifiers": [],
            "name": "decrement",
            "nodeType": "FunctionDefinition",
            "parameters": {
              "id": 1658,
              "nodeType": "ParameterList",
              "parameters": [
                {
                  "constant": false,
                  "id": 1657,
                  "mutability": "mutable",
                  "name": "counter",
                  "nodeType": "VariableDeclaration",
                  "scope": 1682,
                  "src": "1093:23:9",
                  "stateVariable": false,
                  "storageLocation": "storage",
                  "typeDescriptions": {
                    "typeIdentifier": "t_struct$_Counter_$1628_storage_ptr",
                    "typeString": "struct Counters.Counter"
                  },
                  "typeName": {
                    "id": 1656,
                    "nodeType": "UserDefinedTypeName",
                    "pathNode": {
                      "id": 1655,
                      "name": "Counter",
                      "nodeType": "IdentifierPath",
                      "referencedDeclaration": 1628,
                      "src": "1093:7:9"
                    },
                    "referencedDeclaration": 1628,
                    "src": "1093:7:9",
                    "typeDescriptions": {
                      "typeIdentifier": "t_struct$_Counter_$1628_storage_ptr",
                      "typeString": "struct Counters.Counter"
                    }
                  },
                  "visibility": "internal"
                }
              ],
              "src": "1092:25:9"
            },
            "returnParameters": {
              "id": 1659,
              "nodeType": "ParameterList",
              "parameters": [],
              "src": "1127:0:9"
            },
            "scope": 1696,
            "src": "1074:229:9",
            "stateMutability": "nonpayable",
            "virtual": false,
            "visibility": "internal"
          },
          {
            "body": {
              "id": 1694,
              "nodeType": "Block",
              "src": "1358:35:9",
              "statements": [
                {
                  "expression": {
                    "id": 1692,
                    "isConstant": false,
                    "isLValue": false,
                    "isPure": false,
                    "lValueRequested": false,
                    "leftHandSide": {
                      "expression": {
                        "id": 1688,
                        "name": "counter",
                        "nodeType": "Identifier",
                        "overloadedDeclarations": [],
                        "referencedDeclaration": 1685,
                        "src": "1368:7:9",
                        "typeDescriptions": {
                          "typeIdentifier": "t_struct$_Counter_$1628_storage_ptr",
                          "typeString": "struct Counters.Counter storage pointer"
                        }
                      },
                      "id": 1690,
                      "isConstant": false,
                      "isLValue": true,
                      "isPure": false,
                      "lValueRequested": true,
                      "memberName": "_value",
                      "nodeType": "MemberAccess",
                      "referencedDeclaration": 1627,
                      "src": "1368:14:9",
                      "typeDescriptions": {
                        "typeIdentifier": "t_uint256",
                        "typeString": "uint256"
                      }
                    },
                    "nodeType": "Assignment",
                    "operator": "=",
                    "rightHandSide": {
                      "hexValue": "30",
                      "id": 1691,
                      "isConstant": false,
                      "isLValue": false,
                      "isPure": true,
                      "kind": "number",
                      "lValueRequested": false,
                      "nodeType": "Literal",
                      "src": "1385:1:9",
                      "typeDescriptions": {
                        "typeIdentifier": "t_rational_0_by_1",
                        "typeString": "int_const 0"
                      },
                      "value": "0"
                    },
                    "src": "1368:18:9",
                    "typeDescriptions": {
                      "typeIdentifier": "t_uint256",
                      "typeString": "uint256"
                    }
                  },
                  "id": 1693,
                  "nodeType": "ExpressionStatement",
                  "src": "1368:18:9"
                }
              ]
            },
            "id": 1695,
            "implemented": true,
            "kind": "function",
            "modifiers": [],
            "name": "reset",
            "nodeType": "FunctionDefinition",
            "parameters": {
              "id": 1686,
              "nodeType": "ParameterList",
              "parameters": [
                {
                  "constant": false,
                  "id": 1685,
                  "mutability": "mutable",
                  "name": "counter",
                  "nodeType": "VariableDeclaration",
                  "scope": 1695,
                  "src": "1324:23:9",
                  "stateVariable": false,
                  "storageLocation": "storage",
                  "typeDescriptions": {
                    "typeIdentifier": "t_struct$_Counter_$1628_storage_ptr",
                    "typeString": "struct Counters.Counter"
                  },
                  "typeName": {
                    "id": 1684,
                    "nodeType": "UserDefinedTypeName",
                    "pathNode": {
                      "id": 1683,
                      "name": "Counter",
                      "nodeType": "IdentifierPath",
                      "referencedDeclaration": 1628,
                      "src": "1324:7:9"
                    },
                    "referencedDeclaration": 1628,
                    "src": "1324:7:9",
                    "typeDescriptions": {
                      "typeIdentifier": "t_struct$_Counter_$1628_storage_ptr",
                      "typeString": "struct Counters.Counter"
                    }
                  },
                  "visibility": "internal"
                }
              ],
              "src": "1323:25:9"
            },
            "returnParameters": {
              "id": 1687,
              "nodeType": "ParameterList",
              "parameters": [],
              "src": "1358:0:9"
            },
            "scope": 1696,
            "src": "1309:84:9",
            "stateMutability": "nonpayable",
            "virtual": false,
            "visibility": "internal"
          }
        ],
        "scope": 1697,
        "src": "424:971:9"
      }
    ],
    "src": "87:1309:9"
  },
  "compiler": {
    "name": "solc",
    "version": "0.8.0+commit.c7dfd78e.Emscripten.clang"
  },
  "networks": {},
  "schemaVersion": "3.4.1",
  "updatedAt": "2021-12-02T10:21:52.864Z",
  "devdoc": {
    "author": "Matt Condon (@shrugs)",
    "details": "Provides counters that can only be incremented, decremented or reset. This can be used e.g. to track the number of elements in a mapping, issuing ERC721 ids, or counting request ids. Include with `using Counters for Counters.Counter;`",
    "kind": "dev",
    "methods": {},
    "title": "Counters",
    "version": 1
  },
  "userdoc": {
    "kind": "user",
    "methods": {},
    "version": 1
  }
}