{
  "contractName": "IERC721Receiver",
  "abi": [
    {
      "inputs": [
        {
          "internalType": "address",
          "name": "operator",
          "type": "address"
        },
        {
          "internalType": "address",
          "name": "from",
          "type": "address"
        },
        {
          "internalType": "uint256",
          "name": "tokenId",
          "type": "uint256"
        },
        {
          "internalType": "bytes",
          "name": "data",
          "type": "bytes"
        }
      ],
      "name": "onERC721Received",
      "outputs": [
        {
          "internalType": "bytes4",
          "name": "",
          "type": "bytes4"
        }
      ],
      "stateMutability": "nonpayable",
      "type": "function"
    }
  ],
  "metadata": "{\"compiler\":{\"version\":\"0.8.0+commit.c7dfd78e\"},\"language\":\"Solidity\",\"output\":{\"abi\":[{\"inputs\":[{\"internalType\":\"address\",\"name\":\"operator\",\"type\":\"address\"},{\"internalType\":\"address\",\"name\":\"from\",\"type\":\"address\"},{\"internalType\":\"uint256\",\"name\":\"tokenId\",\"type\":\"uint256\"},{\"internalType\":\"bytes\",\"name\":\"data\",\"type\":\"bytes\"}],\"name\":\"onERC721Received\",\"outputs\":[{\"internalType\":\"bytes4\",\"name\":\"\",\"type\":\"bytes4\"}],\"stateMutability\":\"nonpayable\",\"type\":\"function\"}],\"devdoc\":{\"details\":\"Interface for any contract that wants to support safeTransfers from ERC721 asset contracts.\",\"kind\":\"dev\",\"methods\":{\"onERC721Received(address,address,uint256,bytes)\":{\"details\":\"Whenever an {IERC721} `tokenId` token is transferred to this contract via {IERC721-safeTransferFrom} by `operator` from `from`, this function is called. It must return its Solidity selector to confirm the token transfer. If any other value is returned or the interface is not implemented by the recipient, the transfer will be reverted. The selector can be obtained in Solidity with `IERC721.onERC721Received.selector`.\"}},\"title\":\"ERC721 token receiver interface\",\"version\":1},\"userdoc\":{\"kind\":\"user\",\"methods\":{},\"version\":1}},\"settings\":{\"compilationTarget\":{\"@openzeppelin/contracts/token/ERC721/IERC721Receiver.sol\":\"IERC721Receiver\"},\"evmVersion\":\"istanbul\",\"libraries\":{},\"metadata\":{\"bytecodeHash\":\"ipfs\"},\"optimizer\":{\"enabled\":true,\"runs\":200},\"remappings\":[]},\"sources\":{\"@openzeppelin/contracts/token/ERC721/IERC721Receiver.sol\":{\"keccak256\":\"0x483b106386dd309f168672928252a19f30c30efb4d17d4b8e2b0f587ca784a11\",\"license\":\"MIT\",\"urls\":[\"bzz-raw://189a39d066c6886ddbe86c79bb36d6cbe66e98bc6a94956e28f5503dae4ad406\",\"dweb:/ipfs/QmT3s3PwCdXqHLJk26kcnedrRGTC9T18z52i9Be7PV9ppc\"]}},\"version\":1}",
  "bytecode": "0x",
  "deployedBytecode": "0x",
  "immutableReferences": {},
  "generatedSources": [],
  "deployedGeneratedSources": [],
  "sourceMap": "",
  "deployedSourceMap": "",
  "source": "// SPDX-License-Identifier: MIT\n// OpenZeppelin Contracts v4.4.0 (token/ERC721/IERC721Receiver.sol)\n\npragma solidity ^0.8.0;\n\n/**\n * @title ERC721 token receiver interface\n * @dev Interface for any contract that wants to support safeTransfers\n * from ERC721 asset contracts.\n */\ninterface IERC721Receiver {\n    /**\n     * @dev Whenever an {IERC721} `tokenId` token is transferred to this contract via {IERC721-safeTransferFrom}\n     * by `operator` from `from`, this function is called.\n     *\n     * It must return its Solidity selector to confirm the token transfer.\n     * If any other value is returned or the interface is not implemented by the recipient, the transfer will be reverted.\n     *\n     * The selector can be obtained in Solidity with `IERC721.onERC721Received.selector`.\n     */\n    function onERC721Received(\n        address operator,\n        address from,\n        uint256 tokenId,\n        bytes calldata data\n    ) external returns (bytes4);\n}\n",
  "sourcePath": "@openzeppelin/contracts/token/ERC721/IERC721Receiver.sol",
  "ast": {
    "absolutePath": "@openzeppelin/contracts/token/ERC721/IERC721Receiver.sol",
    "exportedSymbols": {
      "IERC721Receiver": [
        1276
      ]
    },
    "id": 1277,
    "license": "MIT",
    "nodeType": "SourceUnit",
    "nodes": [
      {
        "id": 1260,
        "literals": [
          "solidity",
          "^",
          "0.8",
          ".0"
        ],
        "nodeType": "PragmaDirective",
        "src": "101:23:5"
      },
      {
        "abstract": false,
        "baseContracts": [],
        "contractDependencies": [],
        "contractKind": "interface",
        "documentation": {
          "id": 1261,
          "nodeType": "StructuredDocumentation",
          "src": "126:152:5",
          "text": " @title ERC721 token receiver interface\n @dev Interface for any contract that wants to support safeTransfers\n from ERC721 asset contracts."
        },
        "fullyImplemented": false,
        "id": 1276,
        "linearizedBaseContracts": [
          1276
        ],
        "name": "IERC721Receiver",
        "nodeType": "ContractDefinition",
        "nodes": [
          {
            "documentation": {
              "id": 1262,
              "nodeType": "StructuredDocumentation",
              "src": "311:485:5",
              "text": " @dev Whenever an {IERC721} `tokenId` token is transferred to this contract via {IERC721-safeTransferFrom}\n by `operator` from `from`, this function is called.\n It must return its Solidity selector to confirm the token transfer.\n If any other value is returned or the interface is not implemented by the recipient, the transfer will be reverted.\n The selector can be obtained in Solidity with `IERC721.onERC721Received.selector`."
            },
            "functionSelector": "150b7a02",
            "id": 1275,
            "implemented": false,
            "kind": "function",
            "modifiers": [],
            "name": "onERC721Received",
            "nodeType": "FunctionDefinition",
            "parameters": {
              "id": 1271,
              "nodeType": "ParameterList",
              "parameters": [
                {
                  "constant": false,
                  "id": 1264,
                  "mutability": "mutable",
                  "name": "operator",
                  "nodeType": "VariableDeclaration",
                  "scope": 1275,
                  "src": "836:16:5",
                  "stateVariable": false,
                  "storageLocation": "default",
                  "typeDescriptions": {
                    "typeIdentifier": "t_address",
                    "typeString": "address"
                  },
                  "typeName": {
                    "id": 1263,
                    "name": "address",
                    "nodeType": "ElementaryTypeName",
                    "src": "836:7:5",
                    "stateMutability": "nonpayable",
                    "typeDescriptions": {
                      "typeIdentifier": "t_address",
                      "typeString": "address"
                    }
                  },
                  "visibility": "internal"
                },
                {
                  "constant": false,
                  "id": 1266,
                  "mutability": "mutable",
                  "name": "from",
                  "nodeType": "VariableDeclaration",
                  "scope": 1275,
                  "src": "862:12:5",
                  "stateVariable": false,
                  "storageLocation": "default",
                  "typeDescriptions": {
                    "typeIdentifier": "t_address",
                    "typeString": "address"
                  },
                  "typeName": {
                    "id": 1265,
                    "name": "address",
                    "nodeType": "ElementaryTypeName",
                    "src": "862:7:5",
                    "stateMutability": "nonpayable",
                    "typeDescriptions": {
                      "typeIdentifier": "t_address",
                      "typeString": "address"
                    }
                  },
                  "visibility": "internal"
                },
                {
                  "constant": false,
                  "id": 1268,
                  "mutability": "mutable",
                  "name": "tokenId",
                  "nodeType": "VariableDeclaration",
                  "scope": 1275,
                  "src": "884:15:5",
                  "stateVariable": false,
                  "storageLocation": "default",
                  "typeDescriptions": {
                    "typeIdentifier": "t_uint256",
                    "typeString": "uint256"
                  },
                  "typeName": {
                    "id": 1267,
                    "name": "uint256",
                    "nodeType": "ElementaryTypeName",
                    "src": "884:7:5",
                    "typeDescriptions": {
                      "typeIdentifier": "t_uint256",
                      "typeString": "uint256"
                    }
                  },
                  "visibility": "internal"
                },
                {
                  "constant": false,
                  "id": 1270,
                  "mutability": "mutable",
                  "name": "data",
                  "nodeType": "VariableDeclaration",
                  "scope": 1275,
                  "src": "909:19:5",
                  "stateVariable": false,
                  "storageLocation": "calldata",
                  "typeDescriptions": {
                    "typeIdentifier": "t_bytes_calldata_ptr",
                    "typeString": "bytes"
                  },
                  "typeName": {
                    "id": 1269,
                    "name": "bytes",
                    "nodeType": "ElementaryTypeName",
                    "src": "909:5:5",
                    "typeDescriptions": {
                      "typeIdentifier": "t_bytes_storage_ptr",
                      "typeString": "bytes"
                    }
                  },
                  "visibility": "internal"
                }
              ],
              "src": "826:108:5"
            },
            "returnParameters": {
              "id": 1274,
              "nodeType": "ParameterList",
              "parameters": [
                {
                  "constant": false,
                  "id": 1273,
                  "mutability": "mutable",
                  "name": "",
                  "nodeType": "VariableDeclaration",
                  "scope": 1275,
                  "src": "953:6:5",
                  "stateVariable": false,
                  "storageLocation": "default",
                  "typeDescriptions": {
                    "typeIdentifier": "t_bytes4",
                    "typeString": "bytes4"
                  },
                  "typeName": {
                    "id": 1272,
                    "name": "bytes4",
                    "nodeType": "ElementaryTypeName",
                    "src": "953:6:5",
                    "typeDescriptions": {
                      "typeIdentifier": "t_bytes4",
                      "typeString": "bytes4"
                    }
                  },
                  "visibility": "internal"
                }
              ],
              "src": "952:8:5"
            },
            "scope": 1276,
            "src": "801:160:5",
            "stateMutability": "nonpayable",
            "virtual": false,
            "visibility": "external"
          }
        ],
        "scope": 1277,
        "src": "279:684:5"
      }
    ],
    "src": "101:863:5"
  },
  "legacyAST": {
    "absolutePath": "@openzeppelin/contracts/token/ERC721/IERC721Receiver.sol",
    "exportedSymbols": {
      "IERC721Receiver": [
        1276
      ]
    },
    "id": 1277,
    "license": "MIT",
    "nodeType": "SourceUnit",
    "nodes": [
      {
        "id": 1260,
        "literals": [
          "solidity",
          "^",
          "0.8",
          ".0"
        ],
        "nodeType": "PragmaDirective",
        "src": "101:23:5"
      },
      {
        "abstract": false,
        "baseContracts": [],
        "contractDependencies": [],
        "contractKind": "interface",
        "documentation": {
          "id": 1261,
          "nodeType": "StructuredDocumentation",
          "src": "126:152:5",
          "text": " @title ERC721 token receiver interface\n @dev Interface for any contract that wants to support safeTransfers\n from ERC721 asset contracts."
        },
        "fullyImplemented": false,
        "id": 1276,
        "linearizedBaseContracts": [
          1276
        ],
        "name": "IERC721Receiver",
        "nodeType": "ContractDefinition",
        "nodes": [
          {
            "documentation": {
              "id": 1262,
              "nodeType": "StructuredDocumentation",
              "src": "311:485:5",
              "text": " @dev Whenever an {IERC721} `tokenId` token is transferred to this contract via {IERC721-safeTransferFrom}\n by `operator` from `from`, this function is called.\n It must return its Solidity selector to confirm the token transfer.\n If any other value is returned or the interface is not implemented by the recipient, the transfer will be reverted.\n The selector can be obtained in Solidity with `IERC721.onERC721Received.selector`."
            },
            "functionSelector": "150b7a02",
            "id": 1275,
            "implemented": false,
            "kind": "function",
            "modifiers": [],
            "name": "onERC721Received",
            "nodeType": "FunctionDefinition",
            "parameters": {
              "id": 1271,
              "nodeType": "ParameterList",
              "parameters": [
                {
                  "constant": false,
                  "id": 1264,
                  "mutability": "mutable",
                  "name": "operator",
                  "nodeType": "VariableDeclaration",
                  "scope": 1275,
                  "src": "836:16:5",
                  "stateVariable": false,
                  "storageLocation": "default",
                  "typeDescriptions": {
                    "typeIdentifier": "t_address",
                    "typeString": "address"
                  },
                  "typeName": {
                    "id": 1263,
                    "name": "address",
                    "nodeType": "ElementaryTypeName",
                    "src": "836:7:5",
                    "stateMutability": "nonpayable",
                    "typeDescriptions": {
                      "typeIdentifier": "t_address",
                      "typeString": "address"
                    }
                  },
                  "visibility": "internal"
                },
                {
                  "constant": false,
                  "id": 1266,
                  "mutability": "mutable",
                  "name": "from",
                  "nodeType": "VariableDeclaration",
                  "scope": 1275,
                  "src": "862:12:5",
                  "stateVariable": false,
                  "storageLocation": "default",
                  "typeDescriptions": {
                    "typeIdentifier": "t_address",
                    "typeString": "address"
                  },
                  "typeName": {
                    "id": 1265,
                    "name": "address",
                    "nodeType": "ElementaryTypeName",
                    "src": "862:7:5",
                    "stateMutability": "nonpayable",
                    "typeDescriptions": {
                      "typeIdentifier": "t_address",
                      "typeString": "address"
                    }
                  },
                  "visibility": "internal"
                },
                {
                  "constant": false,
                  "id": 1268,
                  "mutability": "mutable",
                  "name": "tokenId",
                  "nodeType": "VariableDeclaration",
                  "scope": 1275,
                  "src": "884:15:5",
                  "stateVariable": false,
                  "storageLocation": "default",
                  "typeDescriptions": {
                    "typeIdentifier": "t_uint256",
                    "typeString": "uint256"
                  },
                  "typeName": {
                    "id": 1267,
                    "name": "uint256",
                    "nodeType": "ElementaryTypeName",
                    "src": "884:7:5",
                    "typeDescriptions": {
                      "typeIdentifier": "t_uint256",
                      "typeString": "uint256"
                    }
                  },
                  "visibility": "internal"
                },
                {
                  "constant": false,
                  "id": 1270,
                  "mutability": "mutable",
                  "name": "data",
                  "nodeType": "VariableDeclaration",
                  "scope": 1275,
                  "src": "909:19:5",
                  "stateVariable": false,
                  "storageLocation": "calldata",
                  "typeDescriptions": {
                    "typeIdentifier": "t_bytes_calldata_ptr",
                    "typeString": "bytes"
                  },
                  "typeName": {
                    "id": 1269,
                    "name": "bytes",
                    "nodeType": "ElementaryTypeName",
                    "src": "909:5:5",
                    "typeDescriptions": {
                      "typeIdentifier": "t_bytes_storage_ptr",
                      "typeString": "bytes"
                    }
                  },
                  "visibility": "internal"
                }
              ],
              "src": "826:108:5"
            },
            "returnParameters": {
              "id": 1274,
              "nodeType": "ParameterList",
              "parameters": [
                {
                  "constant": false,
                  "id": 1273,
                  "mutability": "mutable",
                  "name": "",
                  "nodeType": "VariableDeclaration",
                  "scope": 1275,
                  "src": "953:6:5",
                  "stateVariable": false,
                  "storageLocation": "default",
                  "typeDescriptions": {
                    "typeIdentifier": "t_bytes4",
                    "typeString": "bytes4"
                  },
                  "typeName": {
                    "id": 1272,
                    "name": "bytes4",
                    "nodeType": "ElementaryTypeName",
                    "src": "953:6:5",
                    "typeDescriptions": {
                      "typeIdentifier": "t_bytes4",
                      "typeString": "bytes4"
                    }
                  },
                  "visibility": "internal"
                }
              ],
              "src": "952:8:5"
            },
            "scope": 1276,
            "src": "801:160:5",
            "stateMutability": "nonpayable",
            "virtual": false,
            "visibility": "external"
          }
        ],
        "scope": 1277,
        "src": "279:684:5"
      }
    ],
    "src": "101:863:5"
  },
  "compiler": {
    "name": "solc",
    "version": "0.8.0+commit.c7dfd78e.Emscripten.clang"
  },
  "networks": {},
  "schemaVersion": "3.4.1",
  "updatedAt": "2021-12-02T10:21:52.797Z",
  "devdoc": {
    "details": "Interface for any contract that wants to support safeTransfers from ERC721 asset contracts.",
    "kind": "dev",
    "methods": {
      "onERC721Received(address,address,uint256,bytes)": {
        "details": "Whenever an {IERC721} `tokenId` token is transferred to this contract via {IERC721-safeTransferFrom} by `operator` from `from`, this function is called. It must return its Solidity selector to confirm the token transfer. If any other value is returned or the interface is not implemented by the recipient, the transfer will be reverted. The selector can be obtained in Solidity with `IERC721.onERC721Received.selector`."
      }
    },
    "title": "ERC721 token receiver interface",
    "version": 1
  },
  "userdoc": {
    "kind": "user",
    "methods": {},
    "version": 1
  }
}