{
  "contractName": "IERC165",
  "abi": [
    {
      "inputs": [
        {
          "internalType": "bytes4",
          "name": "interfaceId",
          "type": "bytes4"
        }
      ],
      "name": "supportsInterface",
      "outputs": [
        {
          "internalType": "bool",
          "name": "",
          "type": "bool"
        }
      ],
      "stateMutability": "view",
      "type": "function"
    }
  ],
  "metadata": "{\"compiler\":{\"version\":\"0.8.0+commit.c7dfd78e\"},\"language\":\"Solidity\",\"output\":{\"abi\":[{\"inputs\":[{\"internalType\":\"bytes4\",\"name\":\"interfaceId\",\"type\":\"bytes4\"}],\"name\":\"supportsInterface\",\"outputs\":[{\"internalType\":\"bool\",\"name\":\"\",\"type\":\"bool\"}],\"stateMutability\":\"view\",\"type\":\"function\"}],\"devdoc\":{\"details\":\"Interface of the ERC165 standard, as defined in the https://eips.ethereum.org/EIPS/eip-165[EIP]. Implementers can declare support of contract interfaces, which can then be queried by others ({ERC165Checker}). For an implementation, see {ERC165}.\",\"kind\":\"dev\",\"methods\":{\"supportsInterface(bytes4)\":{\"details\":\"Returns true if this contract implements the interface defined by `interfaceId`. See the corresponding https://eips.ethereum.org/EIPS/eip-165#how-interfaces-are-identified[EIP section] to learn more about how these ids are created. This function call must use less than 30 000 gas.\"}},\"version\":1},\"userdoc\":{\"kind\":\"user\",\"methods\":{},\"version\":1}},\"settings\":{\"compilationTarget\":{\"@openzeppelin/contracts/utils/introspection/IERC165.sol\":\"IERC165\"},\"evmVersion\":\"istanbul\",\"libraries\":{},\"metadata\":{\"bytecodeHash\":\"ipfs\"},\"optimizer\":{\"enabled\":true,\"runs\":200},\"remappings\":[]},\"sources\":{\"@openzeppelin/contracts/utils/introspection/IERC165.sol\":{\"keccak256\":\"0x6aa521718bf139b44ce56f194f6aea1d590cacef995b5a84703fb1579fa49be9\",\"license\":\"MIT\",\"urls\":[\"bzz-raw://100f8d367b5e94eb9cb991914f1de133cf272654c0708faa893bbc17a5b35b93\",\"dweb:/ipfs/QmZeBojmgXq821dL1TJKFb58B1FogM9jL3u7hXQ8hTEBKT\"]}},\"version\":1}",
  "bytecode": "0x",
  "deployedBytecode": "0x",
  "immutableReferences": {},
  "generatedSources": [],
  "deployedGeneratedSources": [],
  "sourceMap": "",
  "deployedSourceMap": "",
  "source": "// SPDX-License-Identifier: MIT\n// OpenZeppelin Contracts v4.4.0 (utils/introspection/IERC165.sol)\n\npragma solidity ^0.8.0;\n\n/**\n * @dev Interface of the ERC165 standard, as defined in the\n * https://eips.ethereum.org/EIPS/eip-165[EIP].\n *\n * Implementers can declare support of contract interfaces, which can then be\n * queried by others ({ERC165Checker}).\n *\n * For an implementation, see {ERC165}.\n */\ninterface IERC165 {\n    /**\n     * @dev Returns true if this contract implements the interface defined by\n     * `interfaceId`. See the corresponding\n     * https://eips.ethereum.org/EIPS/eip-165#how-interfaces-are-identified[EIP section]\n     * to learn more about how these ids are created.\n     *\n     * This function call must use less than 30 000 gas.\n     */\n    function supportsInterface(bytes4 interfaceId) external view returns (bool);\n}\n",
  "sourcePath": "@openzeppelin/contracts/utils/introspection/IERC165.sol",
  "ast": {
    "absolutePath": "@openzeppelin/contracts/utils/introspection/IERC165.sol",
    "exportedSymbols": {
      "IERC165": [
        1935
      ]
    },
    "id": 1936,
    "license": "MIT",
    "nodeType": "SourceUnit",
    "nodes": [
      {
        "id": 1925,
        "literals": [
          "solidity",
          "^",
          "0.8",
          ".0"
        ],
        "nodeType": "PragmaDirective",
        "src": "100:23:12"
      },
      {
        "abstract": false,
        "baseContracts": [],
        "contractDependencies": [],
        "contractKind": "interface",
        "documentation": {
          "id": 1926,
          "nodeType": "StructuredDocumentation",
          "src": "125:279:12",
          "text": " @dev Interface of the ERC165 standard, as defined in the\n https://eips.ethereum.org/EIPS/eip-165[EIP].\n Implementers can declare support of contract interfaces, which can then be\n queried by others ({ERC165Checker}).\n For an implementation, see {ERC165}."
        },
        "fullyImplemented": false,
        "id": 1935,
        "linearizedBaseContracts": [
          1935
        ],
        "name": "IERC165",
        "nodeType": "ContractDefinition",
        "nodes": [
          {
            "documentation": {
              "id": 1927,
              "nodeType": "StructuredDocumentation",
              "src": "429:340:12",
              "text": " @dev Returns true if this contract implements the interface defined by\n `interfaceId`. See the corresponding\n https://eips.ethereum.org/EIPS/eip-165#how-interfaces-are-identified[EIP section]\n to learn more about how these ids are created.\n This function call must use less than 30 000 gas."
            },
            "functionSelector": "01ffc9a7",
            "id": 1934,
            "implemented": false,
            "kind": "function",
            "modifiers": [],
            "name": "supportsInterface",
            "nodeType": "FunctionDefinition",
            "parameters": {
              "id": 1930,
              "nodeType": "ParameterList",
              "parameters": [
                {
                  "constant": false,
                  "id": 1929,
                  "mutability": "mutable",
                  "name": "interfaceId",
                  "nodeType": "VariableDeclaration",
                  "scope": 1934,
                  "src": "801:18:12",
                  "stateVariable": false,
                  "storageLocation": "default",
                  "typeDescriptions": {
                    "typeIdentifier": "t_bytes4",
                    "typeString": "bytes4"
                  },
                  "typeName": {
                    "id": 1928,
                    "name": "bytes4",
                    "nodeType": "ElementaryTypeName",
                    "src": "801:6:12",
                    "typeDescriptions": {
                      "typeIdentifier": "t_bytes4",
                      "typeString": "bytes4"
                    }
                  },
                  "visibility": "internal"
                }
              ],
              "src": "800:20:12"
            },
            "returnParameters": {
              "id": 1933,
              "nodeType": "ParameterList",
              "parameters": [
                {
                  "constant": false,
                  "id": 1932,
                  "mutability": "mutable",
                  "name": "",
                  "nodeType": "VariableDeclaration",
                  "scope": 1934,
                  "src": "844:4:12",
                  "stateVariable": false,
                  "storageLocation": "default",
                  "typeDescriptions": {
                    "typeIdentifier": "t_bool",
                    "typeString": "bool"
                  },
                  "typeName": {
                    "id": 1931,
                    "name": "bool",
                    "nodeType": "ElementaryTypeName",
                    "src": "844:4:12",
                    "typeDescriptions": {
                      "typeIdentifier": "t_bool",
                      "typeString": "bool"
                    }
                  },
                  "visibility": "internal"
                }
              ],
              "src": "843:6:12"
            },
            "scope": 1935,
            "src": "774:76:12",
            "stateMutability": "view",
            "virtual": false,
            "visibility": "external"
          }
        ],
        "scope": 1936,
        "src": "405:447:12"
      }
    ],
    "src": "100:753:12"
  },
  "legacyAST": {
    "absolutePath": "@openzeppelin/contracts/utils/introspection/IERC165.sol",
    "exportedSymbols": {
      "IERC165": [
        1935
      ]
    },
    "id": 1936,
    "license": "MIT",
    "nodeType": "SourceUnit",
    "nodes": [
      {
        "id": 1925,
        "literals": [
          "solidity",
          "^",
          "0.8",
          ".0"
        ],
        "nodeType": "PragmaDirective",
        "src": "100:23:12"
      },
      {
        "abstract": false,
        "baseContracts": [],
        "contractDependencies": [],
        "contractKind": "interface",
        "documentation": {
          "id": 1926,
          "nodeType": "StructuredDocumentation",
          "src": "125:279:12",
          "text": " @dev Interface of the ERC165 standard, as defined in the\n https://eips.ethereum.org/EIPS/eip-165[EIP].\n Implementers can declare support of contract interfaces, which can then be\n queried by others ({ERC165Checker}).\n For an implementation, see {ERC165}."
        },
        "fullyImplemented": false,
        "id": 1935,
        "linearizedBaseContracts": [
          1935
        ],
        "name": "IERC165",
        "nodeType": "ContractDefinition",
        "nodes": [
          {
            "documentation": {
              "id": 1927,
              "nodeType": "StructuredDocumentation",
              "src": "429:340:12",
              "text": " @dev Returns true if this contract implements the interface defined by\n `interfaceId`. See the corresponding\n https://eips.ethereum.org/EIPS/eip-165#how-interfaces-are-identified[EIP section]\n to learn more about how these ids are created.\n This function call must use less than 30 000 gas."
            },
            "functionSelector": "01ffc9a7",
            "id": 1934,
            "implemented": false,
            "kind": "function",
            "modifiers": [],
            "name": "supportsInterface",
            "nodeType": "FunctionDefinition",
            "parameters": {
              "id": 1930,
              "nodeType": "ParameterList",
              "parameters": [
                {
                  "constant": false,
                  "id": 1929,
                  "mutability": "mutable",
                  "name": "interfaceId",
                  "nodeType": "VariableDeclaration",
                  "scope": 1934,
                  "src": "801:18:12",
                  "stateVariable": false,
                  "storageLocation": "default",
                  "typeDescriptions": {
                    "typeIdentifier": "t_bytes4",
                    "typeString": "bytes4"
                  },
                  "typeName": {
                    "id": 1928,
                    "name": "bytes4",
                    "nodeType": "ElementaryTypeName",
                    "src": "801:6:12",
                    "typeDescriptions": {
                      "typeIdentifier": "t_bytes4",
                      "typeString": "bytes4"
                    }
                  },
                  "visibility": "internal"
                }
              ],
              "src": "800:20:12"
            },
            "returnParameters": {
              "id": 1933,
              "nodeType": "ParameterList",
              "parameters": [
                {
                  "constant": false,
                  "id": 1932,
                  "mutability": "mutable",
                  "name": "",
                  "nodeType": "VariableDeclaration",
                  "scope": 1934,
                  "src": "844:4:12",
                  "stateVariable": false,
                  "storageLocation": "default",
                  "typeDescriptions": {
                    "typeIdentifier": "t_bool",
                    "typeString": "bool"
                  },
                  "typeName": {
                    "id": 1931,
                    "name": "bool",
                    "nodeType": "ElementaryTypeName",
                    "src": "844:4:12",
                    "typeDescriptions": {
                      "typeIdentifier": "t_bool",
                      "typeString": "bool"
                    }
                  },
                  "visibility": "internal"
                }
              ],
              "src": "843:6:12"
            },
            "scope": 1935,
            "src": "774:76:12",
            "stateMutability": "view",
            "virtual": false,
            "visibility": "external"
          }
        ],
        "scope": 1936,
        "src": "405:447:12"
      }
    ],
    "src": "100:753:12"
  },
  "compiler": {
    "name": "solc",
    "version": "0.8.0+commit.c7dfd78e.Emscripten.clang"
  },
  "networks": {},
  "schemaVersion": "3.4.1",
  "updatedAt": "2021-12-02T10:21:52.884Z",
  "devdoc": {
    "details": "Interface of the ERC165 standard, as defined in the https://eips.ethereum.org/EIPS/eip-165[EIP]. Implementers can declare support of contract interfaces, which can then be queried by others ({ERC165Checker}). For an implementation, see {ERC165}.",
    "kind": "dev",
    "methods": {
      "supportsInterface(bytes4)": {
        "details": "Returns true if this contract implements the interface defined by `interfaceId`. See the corresponding https://eips.ethereum.org/EIPS/eip-165#how-interfaces-are-identified[EIP section] to learn more about how these ids are created. This function call must use less than 30 000 gas."
      }
    },
    "version": 1
  },
  "userdoc": {
    "kind": "user",
    "methods": {},
    "version": 1
  }
}